<svg version="1.0" xmlns="http://www.w3.org/2000/svg" viewBox="0 0 465.000000 108.000000" preserveAspectRatio="xMidYMid meet" height="40.000000pt" width="150.000000pt"><link xmlns="" type="text/css" rel="stylesheet" id="dark-mode-custom-link"/><link xmlns="" type="text/css" rel="stylesheet" id="dark-mode-general-link"/><style xmlns="" lang="en" type="text/css" id="dark-mode-custom-style"/><style xmlns="" lang="en" type="text/css" id="dark-mode-native-style"/>

<g transform="translate(0.000000,108.000000) scale(0.100000,-0.100000)" fill="#000000" stroke="none">
<path d="M3351 1002 c-53 -27 -76 -80 -76 -177 1 -127 40 -175 142 -175 93 0 93 0 93 101 l0 89 -56 0 c-54 0 -55 0 -52 -27 2 -20 9 -29 26 -31 31 -5 32 -67 1 -75 -62 -16 -105 48 -96 144 3 31 11 66 18 78 27 43 90 38 97 -8 5 -29 62 -31 62 -1 0 52 -49 100 -102 100 -13 0 -38 -8 -57 -18z"/>
<path d="M50 540 l0 -470 1525 0 1525 0 0 470 0 470 -1525 0 -1525 0 0 -470z m618 208 c134 -89 118 -375 -25 -434 -39 -17 -258 -19 -300 -3 -111 42 -161 231 -95 359 48 94 88 110 264 107 106 -3 119 -5 156 -29z m463 18 c9 -4 27 -21 40 -39 32 -43 39 -148 13 -202 -18 -39 -65 -75 -97 -75 -17 0 -17 -2 3 -27 12 -16 36 -44 54 -63 53 -58 53 -60 -2 -60 l-49 0 -96 114 c-54 63 -97 117 -97 120 0 3 44 6 98 6 115 0 137 13 135 78 -2 61 -26 72 -154 72 l-109 0 -2 -192 -3 -193 -35 0 -35 0 -2 215 c-1 118 0 226 3 239 l5 23 157 -4 c86 -3 164 -8 173 -12z m347 5 c13 -8 222 -444 222 -462 0 -5 -17 -9 -38 -9 -36 0 -40 3 -57 40 l-18 40 -88 0 -89 0 -20 40 c-11 21 -20 42 -20 45 0 3 38 5 85 5 47 0 85 3 85 7 0 19 -84 183 -90 176 -4 -5 -40 -80 -80 -168 -40 -88 -78 -166 -83 -172 -11 -15 -77 -18 -77 -3 0 19 203 445 218 458 18 14 32 15 50 3z m594 3 c3 -3 -1 -23 -10 -45 l-15 -39 -106 0 c-119 0 -144 -9 -178 -59 -27 -40 -31 -126 -8 -171 32 -62 55 -70 196 -70 76 0 129 -4 129 -10 0 -5 -8 -25 -17 -45 l-17 -35 -105 0 c-133 0 -172 11 -210 57 -78 95 -81 259 -7 356 25 33 54 50 101 60 30 7 241 8 247 1z m108 -191 l0 -193 155 0 c85 0 155 -2 155 -5 0 -3 -9 -24 -20 -45 l-20 -40 -160 0 c-147 0 -160 1 -170 19 -11 21 -15 443 -4 454 3 3 19 5 35 5 l29 -1 0 -194z m700 188 c0 -5 -7 -25 -15 -45 l-15 -36 -101 0 c-114 0 -155 -13 -182 -59 -9 -16 -17 -34 -17 -40 0 -8 51 -11 160 -11 l160 0 -22 -45 -22 -45 -138 0 c-76 0 -138 -2 -138 -5 0 -4 7 -19 15 -35 28 -54 47 -60 192 -60 73 0 133 -2 133 -5 0 -3 -9 -24 -20 -45 l-20 -40 -111 0 c-126 0 -160 10 -206 63 -42 48 -58 98 -57 183 1 112 54 200 134 222 44 13 270 15 270 3z m94 -7 c19 -18 21 -65 4 -82 -29 -29 -68 -2 -68 47 0 20 24 51 40 51 5 0 16 -7 24 -16z"/>
<path d="M354 674 c-60 -30 -85 -142 -48 -220 28 -59 44 -64 184 -64 105 1 128 4 146 18 57 48 73 161 31 223 -12 18 -34 39 -47 46 -37 19 -227 17 -266 -3z"/>
<path d="M2925 729 c-4 -6 -5 -12 -2 -15 2 -3 7 2 10 11 7 17 1 20 -8 4z"/>
<path d="M2971 724 c0 -11 3 -14 6 -6 3 7 2 16 -1 19 -3 4 -6 -2 -5 -13z"/>
<path d="M2945 690 c3 -5 8 -10 11 -10 2 0 4 5 4 10 0 6 -5 10 -11 10 -5 0 -7 -4 -4 -10z"/>
<path d="M3808 834 c-3 -182 0 -195 37 -180 13 4 15 34 15 181 l0 175 -25 0 -24 0 -3 -176z"/>
<path d="M4040 944 c0 -57 -2 -65 -14 -55 -8 7 -30 11 -48 9 -43 -4 -68 -51 -68 -126 0 -100 58 -154 112 -105 17 15 18 15 18 0 0 -11 8 -17 25 -17 l25 0 0 180 0 180 -25 0 c-24 0 -25 -2 -25 -66z m-16 -106 c31 -43 14 -138 -24 -138 -39 0 -53 105 -20 145 17 20 26 19 44 -7z"/>
<path d="M3620 897 c-35 -18 -50 -53 -50 -120 0 -68 20 -114 54 -123 76 -19 126 30 126 123 0 64 -18 105 -55 121 -33 15 -44 15 -75 -1z m64 -59 c30 -43 14 -138 -23 -138 -26 0 -41 29 -41 77 0 37 22 83 40 83 5 0 16 -10 24 -22z"/>
<path d="M3280 245 l0 -175 30 0 30 0 0 64 0 63 42 6 c50 7 74 31 83 86 8 51 -15 108 -50 121 -15 6 -51 10 -81 10 l-54 0 0 -175z m120 96 c5 -11 10 -26 10 -35 0 -21 -28 -46 -51 -46 -16 0 -19 7 -19 50 0 46 2 50 25 50 14 0 29 -8 35 -19z"/>
<path d="M3903 370 c-16 -6 -23 -18 -23 -35 0 -16 -6 -25 -15 -25 -9 0 -15 -9 -15 -25 0 -16 6 -25 15 -25 12 0 15 -14 15 -69 0 -38 4 -81 9 -94 18 -47 91 -48 91 -1 0 17 -5 24 -20 24 -18 0 -20 7 -20 70 0 63 2 70 20 70 15 0 20 7 20 25 0 18 -5 25 -20 25 -16 0 -20 7 -20 35 0 37 -2 39 -37 25z"/>
<path d="M3520 300 c-11 -11 -20 -29 -20 -40 0 -27 41 -27 58 1 11 16 16 18 28 9 28 -24 10 -50 -35 -50 -27 0 -52 -34 -58 -78 -4 -32 -1 -44 16 -61 25 -25 58 -27 83 -4 11 9 18 11 18 5 0 -7 10 -12 23 -12 22 0 22 1 17 110 -4 94 -8 111 -25 124 -29 22 -81 20 -105 -4z m80 -144 c0 -13 -7 -29 -16 -36 -12 -11 -18 -11 -30 2 -13 12 -14 20 -5 37 16 30 51 28 51 -3z"/>
<path d="M4096 304 c-9 -8 -16 -11 -16 -5 0 6 -11 11 -25 11 l-25 0 0 -120 0 -120 25 0 c25 0 25 1 25 84 0 64 4 88 16 101 31 30 44 2 44 -96 l0 -89 30 0 30 0 0 89 c0 90 -11 139 -33 153 -20 13 -55 9 -71 -8z"/>
<path d="M4297 309 c-58 -34 -63 -209 -7 -239 36 -20 87 -12 109 16 12 15 21 33 21 40 0 19 -46 18 -54 -1 -8 -21 -43 -19 -56 4 -18 36 -12 41 50 41 l60 0 0 34 c0 93 -58 142 -123 105z m63 -60 c15 -26 9 -31 -28 -27 -26 3 -28 6 -21 26 10 28 35 29 49 1z"/>
<path d="M3700 190 l0 -120 30 0 30 0 0 78 c0 79 9 102 40 102 10 0 17 10 18 30 2 25 -1 30 -19 30 -12 0 -28 -8 -35 -17 -13 -17 -13 -17 -14 0 0 11 -8 17 -25 17 l-25 0 0 -120z"/>
<path d="M4470 190 l0 -120 30 0 29 0 3 82 c3 75 5 84 26 93 28 12 32 65 4 65 -10 0 -23 -5 -30 -12 -9 -9 -12 -9 -12 0 0 7 -11 12 -25 12 l-25 0 0 -120z"/>
</g>
</svg>